<svg width="46px" height="43px" viewBox="0 0 46 43" version="1.1" xmlns="http://www.w3.org/2000/svg" xmlns:xlink="http://www.w3.org/1999/xlink">
    <!-- Generator: Sketch 50.2 (55047) - http://www.bohemiancoding.com/sketch -->
    <desc>Created with Sketch.</desc>
    <defs></defs>
    <g id="Moon-Enters-Aries" stroke="none" stroke-width="1" fill="none" fill-rule="evenodd">
        <path d="M22.734375,9.05273438 C23.3007841,6.3574084 24.6093647,4.17481304 26.6601562,2.50488281 C28.7109478,0.834952588 31.0839709,0 33.7792969,0 C37.2168141,0 40.0244032,1.17186328 42.2021484,3.515625 C44.3798937,5.85938672 45.46875,8.78904492 45.46875,12.3046875 C45.46875,16.3086138 44.3017695,19.4482308 41.9677734,21.7236328 C39.6337774,23.9990348 36.542988,25.1367188 32.6953125,25.1367188 L32.6953125,21.7089844 C35.4882952,21.7089844 37.7148354,20.8886801 39.375,19.2480469 C41.0351646,17.6074137 41.8652344,15.2929837 41.8652344,12.3046875 C41.8652344,9.62889287 41.1132888,7.48047686 39.609375,5.859375 C38.1054612,4.23827314 36.1035281,3.42773438 33.6035156,3.42773438 C30.927721,3.42773438 28.7451256,4.58983213 27.0556641,6.9140625 C25.3662025,9.23829287 24.5214844,12.2558408 24.5214844,15.9667969 L24.5214844,42.5390625 L20.9472656,42.5390625 L20.9472656,15.9667969 C20.9472656,12.2558408 20.1074303,9.23829287 18.4277344,6.9140625 C16.7480385,4.58983213 14.5605604,3.42773438 11.8652344,3.42773438 C9.36522187,3.42773438 7.36328877,4.23827314 5.859375,5.859375 C4.35546123,7.48047686 3.60351562,9.62889287 3.60351562,12.3046875 C3.60351562,15.2929837 4.42870269,17.6074137 6.07910156,19.2480469 C7.72950044,20.8886801 9.96092344,21.7089844 12.7734375,21.7089844 L12.7734375,25.1367188 C8.92576201,25.1367188 5.83497261,23.9990348 3.50097656,21.7236328 C1.16698052,19.4482308 0,16.3086138 0,12.3046875 C0,8.78904492 1.0888563,5.85938672 3.26660156,3.515625 C5.44434683,1.17186328 8.25193594,0 11.6894531,0 C14.3847791,0 16.7578022,0.834952588 18.8085938,2.50488281 C20.8593853,4.17481304 22.1679659,6.3574084 22.734375,9.05273438 Z" id="♈" fill="#000000"></path>
    </g>
</svg>